<?xml version="1.0" encoding="UTF-8" standalone="no"?>
<!-- Created with Inkscape (http://www.inkscape.org/) -->
<svg
   xmlns:dc="http://purl.org/dc/elements/1.1/"
   xmlns:cc="http://creativecommons.org/ns#"
   xmlns:rdf="http://www.w3.org/1999/02/22-rdf-syntax-ns#"
   xmlns:svg="http://www.w3.org/2000/svg"
   xmlns="http://www.w3.org/2000/svg"
   xmlns:xlink="http://www.w3.org/1999/xlink"
   xmlns:sodipodi="http://sodipodi.sourceforge.net/DTD/sodipodi-0.dtd"
   xmlns:inkscape="http://www.inkscape.org/namespaces/inkscape"
   sodipodi:docname="Go-previous.svg"
   sodipodi:docbase="/home/andreas/projekt/tango/scalable"
   inkscape:version="0.46"
   sodipodi:version="0.32"
   id="svg11300"
   height="48px"
   width="48px"
   inkscape:export-filename="/home/jimmac/Desktop/wi-fi.png"
   inkscape:export-xdpi="90.000000"
   inkscape:export-ydpi="90.000000"
   inkscape:output_extension="org.inkscape.output.svg.inkscape">
  <defs
     id="defs3">
    <inkscape:perspective
       sodipodi:type="inkscape:persp3d"
       inkscape:vp_x="0 : 24 : 1"
       inkscape:vp_y="0 : 1000 : 0"
       inkscape:vp_z="48 : 24 : 1"
       inkscape:persp3d-origin="24 : 16 : 1"
       id="perspective128" />
    <linearGradient
       id="linearGradient2591">
      <stop
         style="stop-color:#747474;stop-opacity:1;"
         offset="0"
         id="stop2593" />
      <stop
         style="stop-color:#505050;stop-opacity:1;"
         offset="1"
         id="stop2595" />
    </linearGradient>
    <linearGradient
       id="linearGradient10314">
      <stop
         style="stop-color:#7ea5d6;stop-opacity:1.0000000;"
         offset="0.0000000"
         id="stop10316" />
      <stop
         style="stop-color:#467ec5;stop-opacity:1.0000000;"
         offset="1.0000000"
         id="stop10318" />
    </linearGradient>
    <linearGradient
       id="linearGradient8938">
      <stop
         id="stop8940"
         offset="0.0000000"
         style="stop-color:#fdc674;stop-opacity:1.0000000;" />
      <stop
         id="stop8942"
         offset="1.0000000"
         style="stop-color:#d88103;stop-opacity:1.0000000;" />
    </linearGradient>
    <linearGradient
       id="linearGradient8662"
       inkscape:collect="always">
      <stop
         id="stop8664"
         offset="0"
         style="stop-color:#000000;stop-opacity:1;" />
      <stop
         id="stop8666"
         offset="1"
         style="stop-color:#000000;stop-opacity:0;" />
    </linearGradient>
    <linearGradient
       id="linearGradient8650"
       inkscape:collect="always">
      <stop
         id="stop8652"
         offset="0"
         style="stop-color:#ffffff;stop-opacity:1;" />
      <stop
         id="stop8654"
         offset="1"
         style="stop-color:#ffffff;stop-opacity:0;" />
    </linearGradient>
    <linearGradient
       id="linearGradient7636"
       inkscape:collect="always">
      <stop
         id="stop7638"
         offset="0"
         style="stop-color:#000000;stop-opacity:1;" />
      <stop
         id="stop7640"
         offset="1"
         style="stop-color:#000000;stop-opacity:0;" />
    </linearGradient>
    <linearGradient
       id="linearGradient7614">
      <stop
         id="stop7616"
         offset="0.0000000"
         style="stop-color:#ffffff;stop-opacity:1.0000000;" />
      <stop
         style="stop-color:#ffffff;stop-opacity:1.0000000;"
         offset="0.21590909"
         id="stop7649" />
      <stop
         style="stop-color:#838383;stop-opacity:1.0000000;"
         offset="0.50000000"
         id="stop7632" />
      <stop
         id="stop7618"
         offset="1"
         style="stop-color:#838383;stop-opacity:0;" />
    </linearGradient>
    <linearGradient
       id="linearGradient7608">
      <stop
         style="stop-color:#ffffff;stop-opacity:1.0000000;"
         offset="0.0000000"
         id="stop7610" />
      <stop
         id="stop7622"
         offset="0.46022728"
         style="stop-color:#e3e3e3;stop-opacity:1.0000000;" />
      <stop
         style="stop-color:#dadada;stop-opacity:0.67058824;"
         offset="0.61970556"
         id="stop7624" />
      <stop
         style="stop-color:#d1d1d1;stop-opacity:0.34285715;"
         offset="1.0000000"
         id="stop7612" />
    </linearGradient>
    <linearGradient
       id="linearGradient7602">
      <stop
         id="stop7604"
         offset="0.0000000"
         style="stop-color:#f6f6f6;stop-opacity:1.0000000;" />
      <stop
         id="stop7606"
         offset="1.0000000"
         style="stop-color:#e0e0e0;stop-opacity:1.0000000;" />
    </linearGradient>
    <linearGradient
       id="linearGradient7586">
      <stop
         id="stop7588"
         offset="0.0000000"
         style="stop-color:#525252;stop-opacity:1.0000000;" />
      <stop
         id="stop7590"
         offset="1.0000000"
         style="stop-color:#000000;stop-opacity:1.0000000;" />
    </linearGradient>
    <linearGradient
       inkscape:collect="always"
       id="linearGradient12836">
      <stop
         style="stop-color:#515152;stop-opacity:1;"
         offset="0"
         id="stop12838" />
      <stop
         style="stop-color:#515152;stop-opacity:0;"
         offset="1"
         id="stop12840" />
    </linearGradient>
    <linearGradient
       id="linearGradient12828">
      <stop
         style="stop-color:#cccccd;stop-opacity:1.0000000;"
         offset="0.0000000"
         id="stop12830" />
      <stop
         id="stop12862"
         offset="0.0000000"
         style="stop-color:#adadae;stop-opacity:1.0000000;" />
      <stop
         style="stop-color:#8f8f90;stop-opacity:0.0000000;"
         offset="1.0000000"
         id="stop12832" />
    </linearGradient>
    <linearGradient
       id="linearGradient12810">
      <stop
         style="stop-color:#ffffff;stop-opacity:1;"
         offset="0"
         id="stop12812" />
      <stop
         style="stop-color:#e5e5e5;stop-opacity:1.0000000;"
         offset="1.0000000"
         id="stop12814" />
    </linearGradient>
    <linearGradient
       inkscape:collect="always"
       id="linearGradient11625">
      <stop
         style="stop-color:#fce94f;stop-opacity:1;"
         offset="0"
         id="stop11627" />
      <stop
         style="stop-color:#fce94f;stop-opacity:0;"
         offset="1"
         id="stop11629" />
    </linearGradient>
    <linearGradient
       id="linearGradient11615">
      <stop
         style="stop-color:#636363;stop-opacity:1.0000000;"
         offset="0.0000000"
         id="stop11617" />
      <stop
         style="stop-color:#000000;stop-opacity:1.0000000;"
         offset="1.0000000"
         id="stop11619" />
    </linearGradient>
    <linearGradient
       id="linearGradient11602">
      <stop
         style="stop-color:#ffffff;stop-opacity:1.0000000;"
         offset="0.0000000"
         id="stop11604" />
      <stop
         style="stop-color:#c5c5c5;stop-opacity:1.0000000;"
         offset="1.0000000"
         id="stop11606" />
    </linearGradient>
    <linearGradient
       id="linearGradient11594">
      <stop
         style="stop-color:#ffffff;stop-opacity:1;"
         offset="0"
         id="stop11596" />
      <stop
         style="stop-color:#d1d1d1;stop-opacity:1.0000000;"
         offset="1.0000000"
         id="stop11598" />
    </linearGradient>
    <linearGradient
       id="linearGradient11520">
      <stop
         style="stop-color:#fbfbfb;stop-opacity:1.0000000;"
         offset="0.0000000"
         id="stop11522" />
      <stop
         style="stop-color:#dcdcdc;stop-opacity:1.0000000;"
         offset="1.0000000"
         id="stop11524" />
    </linearGradient>
    <linearGradient
       inkscape:collect="always"
       id="linearGradient11508">
      <stop
         style="stop-color:#000000;stop-opacity:1;"
         offset="0"
         id="stop11510" />
      <stop
         style="stop-color:#000000;stop-opacity:0;"
         offset="1"
         id="stop11512" />
    </linearGradient>
    <linearGradient
       inkscape:collect="always"
       id="linearGradient11494">
      <stop
         style="stop-color:#ef2929;stop-opacity:1;"
         offset="0"
         id="stop11496" />
      <stop
         style="stop-color:#ef2929;stop-opacity:0;"
         offset="1"
         id="stop11498" />
    </linearGradient>
    <linearGradient
       id="linearGradient11415">
      <stop
         style="stop-color:#204a87;stop-opacity:0.0000000;"
         offset="0.0000000"
         id="stop11417" />
      <stop
         id="stop11423"
         offset="0.50000000"
         style="stop-color:#204a87;stop-opacity:1.0000000;" />
      <stop
         style="stop-color:#204a87;stop-opacity:0;"
         offset="1"
         id="stop11419" />
    </linearGradient>
    <linearGradient
       inkscape:collect="always"
       id="linearGradient11399">
      <stop
         style="stop-color:#000000;stop-opacity:1;"
         offset="0"
         id="stop11401" />
      <stop
         style="stop-color:#000000;stop-opacity:0;"
         offset="1"
         id="stop11403" />
    </linearGradient>
    <linearGradient
       inkscape:collect="always"
       xlink:href="#linearGradient11415"
       id="linearGradient11425"
       gradientUnits="userSpaceOnUse"
       x1="15.828360"
       y1="3.7744560"
       x2="43.615788"
       y2="34.462429"
       gradientTransform="translate(-60.28571,-0.285714)" />
    <linearGradient
       inkscape:collect="always"
       xlink:href="#linearGradient11415"
       id="linearGradient11427"
       gradientUnits="userSpaceOnUse"
       x1="9.6957054"
       y1="9.3458843"
       x2="35.679932"
       y2="39.033859"
       gradientTransform="translate(-60.57143,0.000000)" />
    <linearGradient
       inkscape:collect="always"
       xlink:href="#linearGradient11415"
       id="linearGradient11439"
       gradientUnits="userSpaceOnUse"
       gradientTransform="translate(-60.85714,0.428571)"
       x1="13.267134"
       y1="19.774456"
       x2="26.758644"
       y2="33.462429" />
    <radialGradient
       inkscape:collect="always"
       xlink:href="#linearGradient11399"
       id="radialGradient11441"
       gradientUnits="userSpaceOnUse"
       gradientTransform="matrix(1.000000,0.000000,0.000000,0.487395,0.000000,20.06483)"
       cx="12.071428"
       cy="39.142857"
       fx="12.071428"
       fy="39.142857"
       r="8.5000000" />
    <radialGradient
       inkscape:collect="always"
       xlink:href="#linearGradient11494"
       id="radialGradient11500"
       cx="27.577173"
       cy="15.048258"
       fx="27.577173"
       fy="15.048258"
       r="3.8335034"
       gradientUnits="userSpaceOnUse"
       gradientTransform="matrix(1.243453,2.106784e-16,-2.106784e-16,1.243453,-6.713754,-3.742847)" />
    <radialGradient
       inkscape:collect="always"
       xlink:href="#linearGradient11494"
       id="radialGradient11504"
       gradientUnits="userSpaceOnUse"
       gradientTransform="matrix(1.243453,2.106784e-16,-2.106784e-16,1.243453,-6.713754,-3.742847)"
       cx="27.577173"
       cy="16.049133"
       fx="27.577173"
       fy="16.049133"
       r="3.8335034" />
    <radialGradient
       inkscape:collect="always"
       xlink:href="#linearGradient11508"
       id="radialGradient11514"
       cx="30.203562"
       cy="44.565483"
       fx="30.203562"
       fy="44.565483"
       r="6.5659914"
       gradientTransform="matrix(1.000000,0.000000,0.000000,0.338462,2.166583e-14,29.48178)"
       gradientUnits="userSpaceOnUse" />
    <radialGradient
       inkscape:collect="always"
       xlink:href="#linearGradient11520"
       id="radialGradient11526"
       cx="24.445690"
       cy="35.878170"
       fx="24.445690"
       fy="35.878170"
       r="20.530962"
       gradientUnits="userSpaceOnUse"
       gradientTransform="matrix(1.995058,-1.535926e-32,0.000000,1.855412,24.94925,-30.20430)" />
    <radialGradient
       inkscape:collect="always"
       xlink:href="#linearGradient11508"
       id="radialGradient11532"
       gradientUnits="userSpaceOnUse"
       gradientTransform="matrix(1.000000,0.000000,0.000000,0.338462,-5.348412e-14,29.48178)"
       cx="30.203562"
       cy="44.565483"
       fx="30.203562"
       fy="44.565483"
       r="6.5659914" />
    <linearGradient
       inkscape:collect="always"
       xlink:href="#linearGradient11594"
       id="linearGradient11600"
       x1="20.092352"
       y1="8.9471626"
       x2="31.799011"
       y2="38.947163"
       gradientUnits="userSpaceOnUse"
       gradientTransform="matrix(1.045319,0.000000,0.000000,0.957884,48.16627,1.415543)" />
    <linearGradient
       inkscape:collect="always"
       xlink:href="#linearGradient11520"
       id="linearGradient11608"
       x1="24.445671"
       y1="0.49847093"
       x2="24.445671"
       y2="39.447163"
       gradientUnits="userSpaceOnUse"
       gradientTransform="matrix(0.984324,0.000000,0.000000,0.957884,49.65734,1.415543)" />
    <radialGradient
       inkscape:collect="always"
       xlink:href="#linearGradient11615"
       id="radialGradient11621"
       cx="25.000000"
       cy="27.749998"
       fx="25.000000"
       fy="27.749998"
       r="4.7500000"
       gradientTransform="matrix(3.570338,3.171097e-15,-4.005596e-15,4.509900,-64.25843,-94.25499)"
       gradientUnits="userSpaceOnUse" />
    <linearGradient
       inkscape:collect="always"
       xlink:href="#linearGradient11625"
       id="linearGradient11631"
       x1="21.500000"
       y1="30.000000"
       x2="21.500000"
       y2="27.375000"
       gradientUnits="userSpaceOnUse" />
    <linearGradient
       inkscape:collect="always"
       xlink:href="#linearGradient11625"
       id="linearGradient11635"
       gradientUnits="userSpaceOnUse"
       x1="21.500000"
       y1="30.000000"
       x2="21.500000"
       y2="27.375000"
       gradientTransform="translate(2.000000,0.000000)" />
    <linearGradient
       inkscape:collect="always"
       xlink:href="#linearGradient11625"
       id="linearGradient11639"
       gradientUnits="userSpaceOnUse"
       gradientTransform="translate(4.000000,0.000000)"
       x1="21.500000"
       y1="30.000000"
       x2="21.500000"
       y2="27.375000" />
    <linearGradient
       inkscape:collect="always"
       xlink:href="#linearGradient11625"
       id="linearGradient11643"
       gradientUnits="userSpaceOnUse"
       gradientTransform="translate(6.000000,0.000000)"
       x1="21.500000"
       y1="30.000000"
       x2="21.500000"
       y2="27.375000" />
    <linearGradient
       inkscape:collect="always"
       xlink:href="#linearGradient11625"
       id="linearGradient11647"
       gradientUnits="userSpaceOnUse"
       gradientTransform="translate(8.000000,0.000000)"
       x1="21.500000"
       y1="30.000000"
       x2="21.500000"
       y2="27.375000" />
    <linearGradient
       inkscape:collect="always"
       xlink:href="#linearGradient11625"
       id="linearGradient11655"
       gradientUnits="userSpaceOnUse"
       x1="21.500000"
       y1="30.000000"
       x2="21.500000"
       y2="27.375000" />
    <linearGradient
       inkscape:collect="always"
       xlink:href="#linearGradient11625"
       id="linearGradient11657"
       gradientUnits="userSpaceOnUse"
       gradientTransform="translate(2.000000,0.000000)"
       x1="21.500000"
       y1="30.000000"
       x2="21.500000"
       y2="27.375000" />
    <linearGradient
       inkscape:collect="always"
       xlink:href="#linearGradient11625"
       id="linearGradient11659"
       gradientUnits="userSpaceOnUse"
       gradientTransform="translate(4.000000,0.000000)"
       x1="21.500000"
       y1="30.000000"
       x2="21.500000"
       y2="27.375000" />
    <linearGradient
       inkscape:collect="always"
       xlink:href="#linearGradient11625"
       id="linearGradient11661"
       gradientUnits="userSpaceOnUse"
       gradientTransform="translate(6.000000,0.000000)"
       x1="21.500000"
       y1="30.000000"
       x2="21.500000"
       y2="27.375000" />
    <linearGradient
       inkscape:collect="always"
       xlink:href="#linearGradient12810"
       id="linearGradient12816"
       x1="65.623963"
       y1="21.459777"
       x2="87.528968"
       y2="21.459777"
       gradientUnits="userSpaceOnUse" />
    <linearGradient
       inkscape:collect="always"
       xlink:href="#linearGradient12810"
       id="linearGradient12818"
       gradientUnits="userSpaceOnUse"
       x1="84.998962"
       y1="25.209778"
       x2="62.591469"
       y2="12.022278" />
    <radialGradient
       inkscape:collect="always"
       xlink:href="#linearGradient12828"
       id="radialGradient12834"
       cx="88.593018"
       cy="33.398670"
       fx="88.593018"
       fy="33.398670"
       r="7.0056136"
       gradientTransform="matrix(0.969219,0.227988,-0.194668,0.827570,9.443870,-15.99848)"
       gradientUnits="userSpaceOnUse" />
    <linearGradient
       inkscape:collect="always"
       xlink:href="#linearGradient12836"
       id="linearGradient12842"
       x1="88.750000"
       y1="31.656250"
       x2="92.062500"
       y2="36.656250"
       gradientUnits="userSpaceOnUse" />
    <linearGradient
       inkscape:collect="always"
       xlink:href="#linearGradient12810"
       id="linearGradient12878"
       gradientUnits="userSpaceOnUse"
       x1="65.623963"
       y1="21.459777"
       x2="87.528968"
       y2="21.459777" />
    <linearGradient
       inkscape:collect="always"
       xlink:href="#linearGradient12836"
       id="linearGradient12880"
       gradientUnits="userSpaceOnUse"
       x1="88.750000"
       y1="31.656250"
       x2="92.062500"
       y2="36.656250" />
    <radialGradient
       inkscape:collect="always"
       xlink:href="#linearGradient12828"
       id="radialGradient12882"
       gradientUnits="userSpaceOnUse"
       gradientTransform="matrix(0.969219,0.227988,-0.194668,0.827570,9.443870,-15.99848)"
       cx="88.593018"
       cy="33.398670"
       fx="88.593018"
       fy="33.398670"
       r="7.0056136" />
    <linearGradient
       inkscape:collect="always"
       xlink:href="#linearGradient12810"
       id="linearGradient12884"
       gradientUnits="userSpaceOnUse"
       x1="84.998962"
       y1="25.209778"
       x2="62.591469"
       y2="12.022278" />
    <radialGradient
       inkscape:collect="always"
       xlink:href="#linearGradient11615"
       id="radialGradient12894"
       gradientUnits="userSpaceOnUse"
       gradientTransform="matrix(3.570338,3.171097e-15,-4.005596e-15,4.509900,-64.25843,-94.25499)"
       cx="25.000000"
       cy="27.749998"
       fx="25.000000"
       fy="27.749998"
       r="4.7500000" />
    <linearGradient
       inkscape:collect="always"
       xlink:href="#linearGradient11625"
       id="linearGradient12896"
       gradientUnits="userSpaceOnUse"
       x1="21.500000"
       y1="30.000000"
       x2="21.500000"
       y2="27.375000"
       gradientTransform="translate(7.267442e-2,-0.181686)" />
    <linearGradient
       inkscape:collect="always"
       xlink:href="#linearGradient11625"
       id="linearGradient12898"
       gradientUnits="userSpaceOnUse"
       gradientTransform="translate(2.072674,-0.181686)"
       x1="21.500000"
       y1="30.000000"
       x2="21.500000"
       y2="27.375000" />
    <linearGradient
       inkscape:collect="always"
       xlink:href="#linearGradient11625"
       id="linearGradient12900"
       gradientUnits="userSpaceOnUse"
       gradientTransform="translate(4.072674,-0.181686)"
       x1="21.500000"
       y1="30.000000"
       x2="21.500000"
       y2="27.375000" />
    <linearGradient
       inkscape:collect="always"
       xlink:href="#linearGradient11625"
       id="linearGradient12902"
       gradientUnits="userSpaceOnUse"
       gradientTransform="translate(6.000000,0.000000)"
       x1="21.500000"
       y1="30.000000"
       x2="21.500000"
       y2="27.375000" />
    <linearGradient
       inkscape:collect="always"
       xlink:href="#linearGradient11625"
       id="linearGradient12911"
       gradientUnits="userSpaceOnUse"
       gradientTransform="translate(7.267442e-2,-0.181686)"
       x1="21.500000"
       y1="30.000000"
       x2="21.500000"
       y2="27.375000" />
    <linearGradient
       inkscape:collect="always"
       xlink:href="#linearGradient11625"
       id="linearGradient12913"
       gradientUnits="userSpaceOnUse"
       gradientTransform="translate(2.072674,-0.181686)"
       x1="21.500000"
       y1="30.000000"
       x2="21.500000"
       y2="27.375000" />
    <linearGradient
       inkscape:collect="always"
       xlink:href="#linearGradient11625"
       id="linearGradient12915"
       gradientUnits="userSpaceOnUse"
       gradientTransform="translate(4.072674,-0.181686)"
       x1="21.500000"
       y1="30.000000"
       x2="21.500000"
       y2="27.375000" />
    <linearGradient
       y2="21.067410"
       x2="24.445690"
       y1="33.447811"
       x1="31.597168"
       gradientTransform="matrix(0.476329,0.000000,0.000000,0.627721,62.07560,9.156933)"
       gradientUnits="userSpaceOnUse"
       id="linearGradient7584"
       xlink:href="#linearGradient11594"
       inkscape:collect="always" />
    <radialGradient
       gradientUnits="userSpaceOnUse"
       gradientTransform="matrix(2.407878,2.776254e-16,-5.900875e-16,1.861050,14.96976,-20.55775)"
       r="6.0270013"
       fy="29.099535"
       fx="24.399090"
       cy="29.099535"
       cx="24.399090"
       id="radialGradient7592"
       xlink:href="#linearGradient7586"
       inkscape:collect="always" />
    <linearGradient
       y2="11.042997"
       x2="22.585604"
       y1="34.149513"
       x1="22.585604"
       gradientTransform="matrix(1.059222,0.000000,0.000000,0.808101,48.08657,4.001391)"
       gradientUnits="userSpaceOnUse"
       id="linearGradient7596"
       xlink:href="#linearGradient7608"
       inkscape:collect="always" />
    <linearGradient
       gradientTransform="translate(49.32070,0.000000)"
       gradientUnits="userSpaceOnUse"
       y2="38.454056"
       x2="28.284273"
       y1="28.554562"
       x1="25.279068"
       id="linearGradient7642"
       xlink:href="#linearGradient7636"
       inkscape:collect="always" />
    <radialGradient
       gradientUnits="userSpaceOnUse"
       gradientTransform="matrix(2.777122,-8.126449e-2,6.891211e-2,2.223012,4.035118,-33.24798)"
       r="4.4774761"
       fy="29.609560"
       fx="24.483574"
       cy="29.609560"
       cx="24.483574"
       id="radialGradient7647"
       xlink:href="#linearGradient7614"
       inkscape:collect="always" />
    <radialGradient
       gradientUnits="userSpaceOnUse"
       gradientTransform="matrix(-2.046729,-3.749427e-16,-2.853404e-16,1.557610,67.59375,3.275309)"
       r="17.171415"
       fy="5.7859797"
       fx="25.075571"
       cy="5.7859797"
       cx="25.075571"
       id="radialGradient8656"
       xlink:href="#linearGradient8650"
       inkscape:collect="always" />
    <radialGradient
       gradientUnits="userSpaceOnUse"
       gradientTransform="matrix(1.000000,0.000000,0.000000,0.536723,6.772795e-15,16.87306)"
       r="15.644737"
       fy="36.421127"
       fx="24.837126"
       cy="36.421127"
       cx="24.837126"
       id="radialGradient8668"
       xlink:href="#linearGradient8662"
       inkscape:collect="always" />
    <radialGradient
       inkscape:collect="always"
       xlink:href="#linearGradient2591"
       id="radialGradient2597"
       cx="22.291636"
       cy="32.797512"
       fx="22.291636"
       fy="32.797512"
       r="16.956199"
       gradientTransform="matrix(-0.843022,1.871885e-16,2.265228e-16,1.020168,43.57646,1.205215)"
       gradientUnits="userSpaceOnUse" />
  </defs>
  <sodipodi:namedview
     inkscape:window-y="27"
     inkscape:window-x="0"
     inkscape:window-height="885"
     inkscape:window-width="1280"
     inkscape:showpageshadow="false"
     inkscape:document-units="px"
     inkscape:grid-bbox="true"
     showgrid="false"
     inkscape:current-layer="layer1"
     inkscape:cy="25.461494"
     inkscape:cx="16.089322"
     inkscape:zoom="16"
     inkscape:pageshadow="2"
     inkscape:pageopacity="0.0"
     borderopacity="0.25490196"
     bordercolor="#666666"
     pagecolor="#ffffff"
     id="base"
     fill="#4e9a06"
     stroke="#4e9a06" />
  <metadata
     id="metadata4">
    <rdf:RDF>
      <cc:Work
         rdf:about="">
        <dc:format>image/svg+xml</dc:format>
        <dc:type
           rdf:resource="http://purl.org/dc/dcmitype/StillImage" />
        <dc:creator>
          <cc:Agent>
            <dc:title>Jakub Steiner</dc:title>
          </cc:Agent>
        </dc:creator>
        <dc:source>http://jimmac.musichall.cz</dc:source>
        <cc:license
           rdf:resource="http://creativecommons.org/licenses/by-sa/2.0/" />
        <dc:title>Go Previous</dc:title>
        <dc:subject>
          <rdf:Bag>
            <rdf:li>go</rdf:li>
            <rdf:li>previous</rdf:li>
            <rdf:li>left</rdf:li>
            <rdf:li>arrow</rdf:li>
            <rdf:li>pointer</rdf:li>
            <rdf:li>&lt;</rdf:li>
          </rdf:Bag>
        </dc:subject>
      </cc:Work>
      <cc:License
         rdf:about="http://creativecommons.org/licenses/by-sa/2.0/">
        <cc:permits
           rdf:resource="http://web.resource.org/cc/Reproduction" />
        <cc:permits
           rdf:resource="http://web.resource.org/cc/Distribution" />
        <cc:requires
           rdf:resource="http://web.resource.org/cc/Notice" />
        <cc:requires
           rdf:resource="http://web.resource.org/cc/Attribution" />
        <cc:permits
           rdf:resource="http://web.resource.org/cc/DerivativeWorks" />
        <cc:requires
           rdf:resource="http://web.resource.org/cc/ShareAlike" />
      </cc:License>
    </rdf:RDF>
  </metadata>
  <g
     inkscape:groupmode="layer"
     inkscape:label="Layer 1"
     id="layer1">
    <path
       transform="matrix(-1.271186,0.000000,0.000000,1.271186,56.19514,-15.27857)"
       d="M 40.481863 36.421127 A 15.644737 8.3968935 0 1 1  9.1923885,36.421127 A 15.644737 8.3968935 0 1 1  40.481863 36.421127 z"
       sodipodi:ry="8.3968935"
       sodipodi:rx="15.644737"
       sodipodi:cy="36.421127"
       sodipodi:cx="24.837126"
       id="path8660"
       style="opacity:0.29946521;color:#000000;fill:url(#radialGradient8668);fill-opacity:1.0000000;fill-rule:evenodd;stroke:none;stroke-width:1.0000000;stroke-linecap:butt;stroke-linejoin:miter;marker:none;marker-start:none;marker-mid:none;marker-end:none;stroke-miterlimit:10.000000;stroke-dasharray:none;stroke-dashoffset:0.0000000;stroke-opacity:1.0000000;visibility:visible;display:inline;overflow:visible"
       sodipodi:type="arc" />
    <path
       sodipodi:nodetypes="cccccccc"
       id="path8643"
       d="M 39.490316,15.496821 L 39.490316,32.491241 L 26.537753,32.491241 L 26.537753,40.973779 L 6.577917,23.973588 L 26.531563,6.7295901 L 26.531563,15.502125 L 39.490316,15.496821 z "
       style="opacity:1;color:#000000;fill:url(#radialGradient2597);fill-opacity:1;fill-rule:evenodd;stroke:#3b3b3b;stroke-width:1.00000040000000000;stroke-linecap:round;stroke-linejoin:round;marker:none;marker-start:none;marker-mid:none;marker-end:none;stroke-miterlimit:10;stroke-dasharray:none;stroke-dashoffset:0;stroke-opacity:1;visibility:visible;display:inline;overflow:visible" />
    <path
       sodipodi:nodetypes="cccccc"
       id="path8645"
       d="M 25.988368,7.9779766 L 25.988368,16.034451 L 38.930538,16.034451 L 38.930538,24.918914 C 22.180538,18.668914 22.797001,30.213626 7.547,23.963626 L 25.988368,7.9779766 z "
       style="opacity:0.50802141;color:#000000;fill:url(#radialGradient8656);fill-opacity:1.0000000;fill-rule:evenodd;stroke:none;stroke-width:1.0000000;stroke-linecap:round;stroke-linejoin:round;marker:none;marker-start:none;marker-mid:none;marker-end:none;stroke-miterlimit:10.000000;stroke-dasharray:none;stroke-dashoffset:0.0000000;stroke-opacity:1.0000000;visibility:visible;display:inline;overflow:visible" />
    <path
       style="opacity:0.48128340;color:#000000;fill:none;fill-opacity:1.0000000;fill-rule:evenodd;stroke:#ffffff;stroke-width:1.0000004;stroke-linecap:butt;stroke-linejoin:miter;marker:none;marker-start:none;marker-mid:none;marker-end:none;stroke-miterlimit:10.000000;stroke-dasharray:none;stroke-dashoffset:0.0000000;stroke-opacity:1.0000000;visibility:visible;display:inline;overflow:visible"
       d="M 38.475551,16.541365 L 38.475551,31.463305 L 25.490184,31.463305 L 25.490184,38.764721 L 8.168419,23.96903 L 25.506145,9.0636299 L 25.506145,16.546262 L 38.475551,16.541365 z "
       id="path8658"
       sodipodi:nodetypes="cccccccc" />
  </g>
</svg>
